/g/data/fj7/Copernicus/Sentinel-2/MSI/L1C/2021/2021-07/20S155E-25S160E/S2B_MSIL1C_20210714T235249_N0301_R130_T56KQV_20210715T005654.zip
/g/data/fj7/Copernicus/Sentinel-2/MSI/L1C/2021/2021-04/20S155E-25S160E/S2B_MSIL1C_20210415T235239_N0300_R130_T56KQA_20210416T011323.zip
/g/data/fj7/Copernicus/Sentinel-2/MSI/L1C/2021/2021-05/20S155E-25S160E/S2B_MSIL1C_20210525T235249_N0300_R130_T56KQA_20210526T010734.zip
/g/data/fj7/Copernicus/Sentinel-2/MSI/L1C/2021/2021-05/15S125E-20S130E/S2B_MSIL1C_20210522T014659_N0300_R074_T52KBD_20210522T032402.zip
/g/data/fj7/Copernicus/Sentinel-2/MSI/L1C/2021/2021-04/20S155E-25S160E/S2B_MSIL1C_20210425T235239_N0300_R130_T56KQV_20210426T010904.zip
/g/data/fj7/Copernicus/Sentinel-2/MSI/L1C/2021/2021-07/35S145E-40S150E/S2B_MSIL1C_20210721T001109_N0301_R073_T55HEV_20210721T011359.zip
/g/data/fj7/Copernicus/Sentinel-2/MSI/L1C/2021/2021-05/40S145E-45S150E/S2B_MSIL1C_20210519T000239_N0300_R030_T55GDN_20210519T012041.zip
/g/data/fj7/Copernicus/Sentinel-2/MSI/L1C/2021/2021-03/20S155E-25S160E/S2B_MSIL1C_20210326T235249_N0209_R130_T56KQV_20210327T011911.zip
/g/data/fj7/Copernicus/Sentinel-2/MSI/L1C/2021/2021-04/20S155E-25S160E/S2B_MSIL1C_20210425T235239_N0300_R130_T56KQA_20210426T010904.zip
/g/data/fj7/Copernicus/Sentinel-2/MSI/L1C/2021/2021-05/20S155E-25S160E/S2B_MSIL1C_20210515T235249_N0300_R130_T56KQV_20210516T010322.zip
/g/data/fj7/Copernicus/Sentinel-2/MSI/L1C/2021/2021-03/20S155E-25S160E/S2B_MSIL1C_20210306T235249_N0209_R130_T56KQA_20210307T011919.zip
/g/data/fj7/Copernicus/Sentinel-2/MSI/L1C/2021/2021-05/20S155E-25S160E/S2B_MSIL1C_20210505T235239_N0300_R130_T56KQA_20210506T011341.zip
/g/data/fj7/Copernicus/Sentinel-2/MSI/L1C/2021/2021-07/20S155E-25S160E/S2B_MSIL1C_20210724T235249_N0301_R130_T56KQV_20210725T010111.zip
/g/data/fj7/Copernicus/Sentinel-2/MSI/L1C/2021/2021-05/10S120E-15S125E/S2B_MSIL1C_20210528T020449_N0300_R017_T51LUD_20210528T053253.zip
/g/data/fj7/Copernicus/Sentinel-2/MSI/L1C/2021/2021-06/20S155E-25S160E/S2B_MSIL1C_20210614T235249_N0300_R130_T56KQA_20210615T010441.zip
/g/data/fj7/Copernicus/Sentinel-2/MSI/L1C/2021/2021-03/20S155E-25S160E/S2B_MSIL1C_20210316T235249_N0209_R130_T56KQA_20210317T010714.zip
/g/data/fj7/Copernicus/Sentinel-2/MSI/L1C/2021/2021-03/20S135E-25S140E/S2B_MSIL1C_20210328T005709_N0209_R002_T54KUA_20210328T032644.zip
/g/data/fj7/Copernicus/Sentinel-2/MSI/L1C/2021/2021-07/20S135E-25S140E/S2B_MSIL1C_20210706T005709_N0301_R002_T54KUA_20210706T020937.zip
/g/data/fj7/Copernicus/Sentinel-2/MSI/L1C/2021/2021-04/20S135E-25S140E/S2B_MSIL1C_20210417T005709_N0300_R002_T54KTA_20210417T022532.zip
/g/data/fj7/Copernicus/Sentinel-2/MSI/L1C/2021/2021-05/25S145E-30S150E/S2B_MSIL1C_20210512T001109_N0300_R073_T55JGH_20210512T014256.zip
/g/data/fj7/Copernicus/Sentinel-2/MSI/L1C/2021/2021-03/20S155E-25S160E/S2B_MSIL1C_20210326T235249_N0209_R130_T56KQA_20210327T011911.zip
/g/data/fj7/Copernicus/Sentinel-2/MSI/L1C/2021/2021-03/20S155E-25S160E/S2B_MSIL1C_20210306T235249_N0209_R130_T56KQV_20210307T011919.zip
/g/data/fj7/Copernicus/Sentinel-2/MSI/L1C/2021/2021-05/30S140E-35S145E/S2B_MSIL1C_20210528T002709_N0300_R016_T54HWG_20210528T014753.zip
/g/data/fj7/Copernicus/Sentinel-2/MSI/L1C/2021/2021-03/10S140E-15S145E/S2B_MSIL1C_20210325T004709_N0209_R102_T54LXM_20210325T022837.zip
/g/data/fj7/Copernicus/Sentinel-2/MSI/L1C/2021/2021-05/20S155E-25S160E/S2B_MSIL1C_20210505T235239_N0300_R130_T56KQV_20210506T011341.zip
/g/data/fj7/Copernicus/Sentinel-2/MSI/L1C/2021/2021-01/20S155E-25S160E/S2B_MSIL1C_20210105T235249_N0209_R130_T56KQV_20210106T010455.zip
/g/data/fj7/Copernicus/Sentinel-2/MSI/L1C/2021/2021-07/40S145E-45S150E/S2B_MSIL1C_20210708T000239_N0301_R030_T55GDN_20210708T011433.zip
/g/data/fj7/Copernicus/Sentinel-2/MSI/L1C/2021/2021-05/20S135E-25S140E/S2B_MSIL1C_20210507T005709_N0300_R002_T54KUA_20210507T021035.zip
/g/data/fj7/Copernicus/Sentinel-2/MSI/L1C/2021/2021-05/20S155E-25S160E/S2B_MSIL1C_20210525T235249_N0300_R130_T56KQV_20210526T010734.zip
/g/data/fj7/Copernicus/Sentinel-2/MSI/L1C/2021/2021-06/15S125E-20S130E/S2B_MSIL1C_20210611T014659_N0300_R074_T52KBD_20210611T032525.zip
/g/data/fj7/Copernicus/Sentinel-2/MSI/L1C/2021/2021-05/20S155E-25S160E/S2B_MSIL1C_20210515T235249_N0300_R130_T56KQA_20210516T010322.zip
/g/data/fj7/Copernicus/Sentinel-2/MSI/L1C/2021/2021-07/20S155E-25S160E/S2B_MSIL1C_20210704T235249_N0301_R130_T56KQA_20210705T010155.zip
/g/data/fj7/Copernicus/Sentinel-2/MSI/L1C/2021/2021-05/15S145E-20S150E/S2B_MSIL1C_20210505T002049_N0300_R116_T55LGC_20210505T013803.zip
/g/data/fj7/Copernicus/Sentinel-2/MSI/L1C/2021/2021-04/25S130E-30S135E/S2B_MSIL1C_20210403T011729_N0300_R088_T52JFN_20210403T024246.zip
/g/data/fj7/Copernicus/Sentinel-2/MSI/L1C/2021/2021-06/20S155E-25S160E/S2B_MSIL1C_20210624T235249_N0300_R130_T56KQA_20210625T010706.zip
/g/data/fj7/Copernicus/Sentinel-2/MSI/L1C/2021/2021-06/20S155E-25S160E/S2B_MSIL1C_20210604T235249_N0300_R130_T56KQA_20210606T135459.zip
/g/data/fj7/Copernicus/Sentinel-2/MSI/L1C/2021/2021-06/20S155E-25S160E/S2B_MSIL1C_20210624T235249_N0300_R130_T56KQV_20210625T010706.zip
/g/data/fj7/Copernicus/Sentinel-2/MSI/L1C/2021/2021-04/20S155E-25S160E/S2B_MSIL1C_20210405T235239_N0300_R130_T56KQV_20210406T011306.zip
/g/data/fj7/Copernicus/Sentinel-2/MSI/L1C/2021/2021-05/30S140E-35S145E/S2B_MSIL1C_20210528T002709_N0300_R016_T54HWG_20210528T014752.zip
/g/data/fj7/Copernicus/Sentinel-2/MSI/L1C/2021/2021-03/35S145E-40S150E/S2B_MSIL1C_20210303T001109_N0209_R073_T55HEV_20210303T012441.zip
/g/data/fj7/Copernicus/Sentinel-2/MSI/L1C/2021/2021-08/15S125E-20S130E/S2B_MSIL1C_20210820T014659_N0301_R074_T52LBH_20210820T032429.zip
/g/data/fj7/Copernicus/Sentinel-2/MSI/L1C/2021/2021-06/20S135E-25S140E/S2B_MSIL1C_20210626T005709_N0300_R002_T54KUA_20210626T020827.zip
/g/data/fj7/Copernicus/Sentinel-2/MSI/L1C/2021/2021-05/15S125E-20S130E/S2B_MSIL1C_20210502T014659_N0300_R074_T52LBH_20210502T033357.zip
/g/data/fj7/Copernicus/Sentinel-2/MSI/L1C/2021/2021-03/20S155E-25S160E/S2B_MSIL1C_20210316T235249_N0209_R130_T56KQV_20210317T010714.zip
/g/data/fj7/Copernicus/Sentinel-2/MSI/L1C/2021/2021-06/20S155E-25S160E/S2B_MSIL1C_20210614T235249_N0300_R130_T56KQV_20210615T010441.zip
/g/data/fj7/Copernicus/Sentinel-2/MSI/L1C/2021/2021-06/30S140E-35S145E/S2B_MSIL1C_20210607T002709_N0300_R016_T54HWG_20210607T014717.zip
/g/data/fj7/Copernicus/Sentinel-2/MSI/L1C/2021/2021-05/20S125E-25S130E/S2B_MSIL1C_20210506T012719_N0300_R131_T52JET_20210506T025524.zip
/g/data/fj7/Copernicus/Sentinel-2/MSI/L1C/2021/2021-01/25S145E-30S150E/S2B_MSIL1C_20210122T001109_N0209_R073_T55JGH_20210122T012405.zip
/g/data/fj7/Copernicus/Sentinel-2/MSI/L1C/2021/2021-07/20S155E-25S160E/S2B_MSIL1C_20210724T235249_N0301_R130_T56KQA_20210725T010111.zip
/g/data/fj7/Copernicus/Sentinel-2/MSI/L1C/2021/2021-04/20S155E-25S160E/S2B_MSIL1C_20210415T235239_N0300_R130_T56KQV_20210416T011323.zip
/g/data/fj7/Copernicus/Sentinel-2/MSI/L1C/2021/2021-06/30S140E-35S145E/S2B_MSIL1C_20210607T002709_N0300_R016_T54HWG_20210607T014658.zip
/g/data/fj7/Copernicus/Sentinel-2/MSI/L1C/2021/2021-06/20S155E-25S160E/S2B_MSIL1C_20210604T235249_N0300_R130_T56KQV_20210606T135459.zip
/g/data/fj7/Copernicus/Sentinel-2/MSI/L1C/2021/2021-07/20S155E-25S160E/S2B_MSIL1C_20210714T235249_N0301_R130_T56KQA_20210715T005654.zip
/g/data/fj7/Copernicus/Sentinel-2/MSI/L1C/2021/2021-04/20S155E-25S160E/S2B_MSIL1C_20210405T235239_N0300_R130_T56KQA_20210406T011306.zip
/g/data/fj7/Copernicus/Sentinel-2/MSI/L1C/2021/2021-07/20S155E-25S160E/S2B_MSIL1C_20210704T235249_N0301_R130_T56KQV_20210705T010155.zip
/g/data/fj7/Copernicus/Sentinel-2/MSI/L1C/2021/2021-08/20S155E-25S160E/S2B_MSIL1C_20210813T235249_N0301_R130_T56KQV_20210814T005500.zip
/g/data/fj7/Copernicus/Sentinel-2/MSI/L1C/2021/2021-08/20S130E-25S135E/S2B_MSIL1C_20210818T010729_N0301_R045_T53KMP_20210818T024139.zip
/g/data/fj7/Copernicus/Sentinel-2/MSI/L1C/2021/2021-07/35S145E-40S150E/S2B_MSIL1C_20210711T001109_N0301_R073_T55HEV_20210711T012303.zip
/g/data/fj7/Copernicus/Sentinel-2/MSI/L1C/2021/2021-08/20S155E-25S160E/S2B_MSIL1C_20210803T235249_N0301_R130_T56KQA_20210804T005509.zip
/g/data/fj7/Copernicus/Sentinel-2/MSI/L1C/2021/2021-08/10S140E-15S145E/S2B_MSIL1C_20210812T004709_N0301_R102_T54LXM_20210812T015602.zip
/g/data/fj7/Copernicus/Sentinel-2/MSI/L1C/2021/2021-08/20S155E-25S160E/S2B_MSIL1C_20210823T235249_N0301_R130_T56KQV_20210824T010034.zip
/g/data/fj7/Copernicus/Sentinel-2/MSI/L1C/2021/2021-08/20S155E-25S160E/S2B_MSIL1C_20210803T235249_N0301_R130_T56KQV_20210804T005509.zip
/g/data/fj7/Copernicus/Sentinel-2/MSI/L1C/2021/2021-08/20S155E-25S160E/S2B_MSIL1C_20210823T235249_N0301_R130_T56KQA_20210824T010034.zip
/g/data/fj7/Copernicus/Sentinel-2/MSI/L1C/2021/2021-08/20S155E-25S160E/S2B_MSIL1C_20210813T235249_N0301_R130_T56KQA_20210814T005500.zip
/g/data/fj7/Copernicus/Sentinel-2/MSI/L1C/2021/2021-07/30S145E-35S150E/S2B_MSIL1C_20210728T000239_N0301_R030_T55HGC_20210728T010531.zip
/g/data/fj7/Copernicus/Sentinel-2/MSI/L1C/2021/2021-06/25S120E-30S125E/S2A_MSIL1C_20210612T020451_N0300_R017_T51JTM_20210612T052637.zip
/g/data/fj7/Copernicus/Sentinel-2/MSI/L1C/2021/2021-06/25S115E-30S120E/S2A_MSIL1C_20210612T020451_N0300_R017_T50JQS_20210612T052637.zip
/g/data/fj7/Copernicus/Sentinel-2/MSI/L1C/2021/2021-06/25S115E-30S120E/S2A_MSIL1C_20210612T020451_N0300_R017_T50JPQ_20210612T052637.zip
/g/data/fj7/Copernicus/Sentinel-2/MSI/L1C/2021/2021-06/25S115E-30S120E/S2A_MSIL1C_20210612T020451_N0300_R017_T50JNP_20210612T052637.zip
/g/data/fj7/Copernicus/Sentinel-2/MSI/L1C/2021/2021-06/25S120E-30S125E/S2A_MSIL1C_20210612T020451_N0300_R017_T51JUL_20210612T052637.zip
/g/data/fj7/Copernicus/Sentinel-2/MSI/L1C/2021/2021-06/25S115E-30S120E/S2A_MSIL1C_20210612T020451_N0300_R017_T50JPN_20210612T052637.zip
/g/data/fj7/Copernicus/Sentinel-2/MSI/L1C/2021/2021-06/25S120E-30S125E/S2A_MSIL1C_20210612T020451_N0300_R017_T50JRS_20210612T052637.zip
/g/data/fj7/Copernicus/Sentinel-2/MSI/L1C/2021/2021-06/25S125E-30S130E/S2A_MSIL1C_20210623T013711_N0300_R031_T51JZM_20210623T030852.zip
/g/data/fj7/Copernicus/Sentinel-2/MSI/L1C/2021/2021-06/25S115E-30S120E/S2A_MSIL1C_20210612T020451_N0300_R017_T50JPP_20210612T052637.zip
/g/data/fj7/Copernicus/Sentinel-2/MSI/L1C/2021/2021-06/25S115E-30S120E/S2A_MSIL1C_20210612T020451_N0300_R017_T50JNR_20210612T052637.zip
/g/data/fj7/Copernicus/Sentinel-2/MSI/L1C/2021/2021-05/20S155E-25S160E/S2A_MSIL1C_20210520T235251_N0300_R130_T56KQV_20210521T012232.zip
/g/data/fj7/Copernicus/Sentinel-2/MSI/L1C/2021/2021-03/20S155E-25S160E/S2A_MSIL1C_20210321T235241_N0209_R130_T56KQA_20210322T012759.zip
/g/data/fj7/Copernicus/Sentinel-2/MSI/L1C/2021/2021-06/25S115E-30S120E/S2A_MSIL1C_20210615T021351_N0300_R060_T50JLN_20210615T054456.zip
/g/data/fj7/Copernicus/Sentinel-2/MSI/L1C/2021/2021-06/25S115E-30S120E/S2A_MSIL1C_20210612T020451_N0300_R017_T50JQQ_20210612T052637.zip
/g/data/fj7/Copernicus/Sentinel-2/MSI/L1C/2021/2021-06/25S115E-30S120E/S2A_MSIL1C_20210612T020451_N0300_R017_T50JQP_20210612T052637.zip
/g/data/fj7/Copernicus/Sentinel-2/MSI/L1C/2021/2021-06/25S115E-30S120E/S2A_MSIL1C_20210612T020451_N0300_R017_T50JQR_20210612T052637.zip
/g/data/fj7/Copernicus/Sentinel-2/MSI/L1C/2021/2021-06/25S120E-30S125E/S2A_MSIL1C_20210612T020451_N0300_R017_T51JTK_20210612T052637.zip
/g/data/fj7/Copernicus/Sentinel-2/MSI/L1C/2021/2021-04/30S115E-35S120E/S2A_MSIL1C_20210426T021341_N0300_R060_T50HMG_20210426T054706.zip
/g/data/fj7/Copernicus/Sentinel-2/MSI/L1C/2021/2021-05/10S130E-15S135E/S2A_MSIL1C_20210524T013711_N0300_R031_T52LFK_20210524T030831.zip
/g/data/fj7/Copernicus/Sentinel-2/MSI/L1C/2021/2021-06/25S120E-30S125E/S2A_MSIL1C_20210612T020451_N0300_R017_T51JUM_20210612T052637.zip
/g/data/fj7/Copernicus/Sentinel-2/MSI/L1C/2021/2021-06/25S115E-30S120E/S2A_MSIL1C_20210612T020451_N0300_R017_T50JPR_20210612T052637.zip
/g/data/fj7/Copernicus/Sentinel-2/MSI/L1C/2021/2021-05/20S155E-25S160E/S2A_MSIL1C_20210530T235251_N0300_R130_T56KQA_20210531T011811.zip
/g/data/fj7/Copernicus/Sentinel-2/MSI/L1C/2021/2021-06/25S120E-30S125E/S2A_MSIL1C_20210612T020451_N0300_R017_T51JTH_20210612T052637.zip
/g/data/fj7/Copernicus/Sentinel-2/MSI/L1C/2021/2021-06/25S120E-30S125E/S2A_MSIL1C_20210612T020451_N0300_R017_T51JTJ_20210612T052637.zip
/g/data/fj7/Copernicus/Sentinel-2/MSI/L1C/2021/2021-06/25S115E-30S120E/S2A_MSIL1C_20210612T020451_N0300_R017_T50JQN_20210612T052637.zip
/g/data/fj7/Copernicus/Sentinel-2/MSI/L1C/2021/2021-05/20S155E-25S160E/S2A_MSIL1C_20210510T235241_N0300_R130_T56KQV_20210511T012154.zip
/g/data/fj7/Copernicus/Sentinel-2/MSI/L1C/2021/2021-05/20S155E-25S160E/S2A_MSIL1C_20210520T235251_N0300_R130_T56KQA_20210521T012232.zip
/g/data/fj7/Copernicus/Sentinel-2/MSI/L1C/2021/2021-06/25S115E-30S120E/S2A_MSIL1C_20210612T020451_N0300_R017_T50JPS_20210612T052637.zip
/g/data/fj7/Copernicus/Sentinel-2/MSI/L1C/2021/2021-05/20S155E-25S160E/S2A_MSIL1C_20210530T235251_N0300_R130_T56KQV_20210531T011811.zip
/g/data/fj7/Copernicus/Sentinel-2/MSI/L1C/2021/2021-06/25S120E-30S125E/S2A_MSIL1C_20210612T020451_N0300_R017_T51JTL_20210612T052637.zip
/g/data/fj7/Copernicus/Sentinel-2/MSI/L1C/2021/2021-04/30S115E-35S120E/S2A_MSIL1C_20210426T021341_N0300_R060_T50HLG_20210426T052528.zip
/g/data/fj7/Copernicus/Sentinel-2/MSI/L1C/2021/2021-03/20S155E-25S160E/S2A_MSIL1C_20210321T235241_N0209_R130_T56KQV_20210322T012759.zip
/g/data/fj7/Copernicus/Sentinel-2/MSI/L1C/2021/2021-03/20S155E-25S160E/S2A_MSIL1C_20210301T235251_N0209_R130_T56KQV_20210302T012458.zip
/g/data/fj7/Copernicus/Sentinel-2/MSI/L1C/2021/2021-03/20S155E-25S160E/S2A_MSIL1C_20210311T235241_N0209_R130_T56KQV_20210312T012449.zip
/g/data/fj7/Copernicus/Sentinel-2/MSI/L1C/2021/2021-03/20S155E-25S160E/S2A_MSIL1C_20210311T235241_N0209_R130_T56KQA_20210312T012449.zip
/g/data/fj7/Copernicus/Sentinel-2/MSI/L1C/2021/2021-03/20S155E-25S160E/S2A_MSIL1C_20210301T235251_N0209_R130_T56KQA_20210302T012458.zip
/g/data/fj7/Copernicus/Sentinel-2/MSI/L1C/2021/2021-03/20S155E-25S160E/S2A_MSIL1C_20210331T235241_N0300_R130_T56KQA_20210403T124235.zip
/g/data/fj7/Copernicus/Sentinel-2/MSI/L1C/2021/2021-06/25S115E-30S120E/S2A_MSIL1C_20210612T020451_N0300_R017_T50JNN_20210612T052637.zip
/g/data/fj7/Copernicus/Sentinel-2/MSI/L1C/2021/2021-06/30S145E-35S150E/S2A_MSIL1C_20210626T001111_N0300_R073_T55HFD_20210626T014332.zip
/g/data/fj7/Copernicus/Sentinel-2/MSI/L1C/2021/2021-05/20S155E-25S160E/S2A_MSIL1C_20210510T235241_N0300_R130_T56KQA_20210511T012154.zip
/g/data/fj7/Copernicus/Sentinel-2/MSI/L1C/2021/2021-03/20S155E-25S160E/S2A_MSIL1C_20210331T235241_N0300_R130_T56KQV_20210403T124235.zip
/g/data/fj7/Copernicus/Sentinel-2/MSI/L1C/2021/2021-06/20S155E-25S160E/S2A_MSIL1C_20210609T235251_N0300_R130_T56KQV_20210610T012028.zip
/g/data/fj7/Copernicus/Sentinel-2/MSI/L1C/2021/2021-06/30S115E-35S120E/S2A_MSIL1C_20210612T020451_N0300_R017_T50HLG_20210612T052637.zip
/g/data/fj7/Copernicus/Sentinel-2/MSI/L1C/2021/2021-06/30S115E-35S120E/S2A_MSIL1C_20210612T020451_N0300_R017_T50HPG_20210612T052637.zip
/g/data/fj7/Copernicus/Sentinel-2/MSI/L1C/2021/2021-06/30S115E-35S120E/S2A_MSIL1C_20210612T020451_N0300_R017_T50HPH_20210612T052637.zip
/g/data/fj7/Copernicus/Sentinel-2/MSI/L1C/2021/2021-04/30S150E-35S155E/S2A_MSIL1C_20210420T235241_N0300_R130_T56HMJ_20210421T012614.zip
/g/data/fj7/Copernicus/Sentinel-2/MSI/L1C/2021/2021-06/20S155E-25S160E/S2A_MSIL1C_20210619T235251_N0300_R130_T56KQA_20210620T012107.zip
/g/data/fj7/Copernicus/Sentinel-2/MSI/L1C/2021/2021-06/30S115E-35S120E/S2A_MSIL1C_20210612T020451_N0300_R017_T50HLH_20210612T052637.zip
/g/data/fj7/Copernicus/Sentinel-2/MSI/L1C/2021/2021-06/30S115E-35S120E/S2A_MSIL1C_20210612T020451_N0300_R017_T50HMH_20210612T052637.zip
/g/data/fj7/Copernicus/Sentinel-2/MSI/L1C/2021/2021-06/15S125E-20S130E/S2A_MSIL1C_20210606T014701_N0300_R074_T52LBH_20210606T032722.zip
/g/data/fj7/Copernicus/Sentinel-2/MSI/L1C/2021/2021-06/30S115E-35S120E/S2A_MSIL1C_20210612T020451_N0300_R017_T50HPK_20210612T052637.zip
/g/data/fj7/Copernicus/Sentinel-2/MSI/L1C/2021/2021-06/20S155E-25S160E/S2A_MSIL1C_20210629T235251_N0300_R130_T56KQA_20210630T012010.zip
/g/data/fj7/Copernicus/Sentinel-2/MSI/L1C/2021/2021-06/30S115E-35S120E/S2A_MSIL1C_20210612T020451_N0300_R017_T50HMJ_20210612T052637.zip
/g/data/fj7/Copernicus/Sentinel-2/MSI/L1C/2021/2021-06/30S115E-35S120E/S2A_MSIL1C_20210612T020451_N0300_R017_T50HNH_20210612T052637.zip
/g/data/fj7/Copernicus/Sentinel-2/MSI/L1C/2021/2021-06/30S115E-35S120E/S2A_MSIL1C_20210612T020451_N0300_R017_T50JPL_20210612T052637.zip
/g/data/fj7/Copernicus/Sentinel-2/MSI/L1C/2021/2021-06/15S120E-20S125E/S2A_MSIL1C_20210612T020451_N0300_R017_T51KUV_20210612T052637.zip
/g/data/fj7/Copernicus/Sentinel-2/MSI/L1C/2021/2021-06/30S115E-35S120E/S2A_MSIL1C_20210612T020451_N0300_R017_T50HQK_20210612T052637.zip
/g/data/fj7/Copernicus/Sentinel-2/MSI/L1C/2021/2021-06/30S115E-35S120E/S2A_MSIL1C_20210612T020451_N0300_R017_T50JMM_20210612T052637.zip
/g/data/fj7/Copernicus/Sentinel-2/MSI/L1C/2021/2021-03/25S120E-30S125E/S2A_MSIL1C_20210318T014701_N0209_R074_T51JWJ_20210318T032827.zip
/g/data/fj7/Copernicus/Sentinel-2/MSI/L1C/2021/2021-06/30S115E-35S120E/S2A_MSIL1C_20210612T020451_N0300_R017_T50HNK_20210612T052637.zip
/g/data/fj7/Copernicus/Sentinel-2/MSI/L1C/2021/2021-06/30S115E-35S120E/S2A_MSIL1C_20210612T020451_N0300_R017_T50JQL_20210612T052637.zip
/g/data/fj7/Copernicus/Sentinel-2/MSI/L1C/2021/2021-06/30S115E-35S120E/S2A_MSIL1C_20210612T020451_N0300_R017_T51JTG_20210612T052637.zip
/g/data/fj7/Copernicus/Sentinel-2/MSI/L1C/2021/2021-06/30S115E-35S120E/S2A_MSIL1C_20210612T020451_N0300_R017_T50HQJ_20210612T052637.zip
/g/data/fj7/Copernicus/Sentinel-2/MSI/L1C/2021/2021-06/15S115E-20S120E/S2A_MSIL1C_20210612T020451_N0300_R017_T50KQD_20210612T052637.zip
/g/data/fj7/Copernicus/Sentinel-2/MSI/L1C/2021/2021-06/30S115E-35S120E/S2A_MSIL1C_20210612T020451_N0300_R017_T50JML_20210612T052637.zip
/g/data/fj7/Copernicus/Sentinel-2/MSI/L1C/2021/2021-05/10S140E-15S145E/S2A_MSIL1C_20210519T004711_N0300_R102_T54LXM_20210519T023039.zip
/g/data/fj7/Copernicus/Sentinel-2/MSI/L1C/2021/2021-06/20S150E-25S155E/S2A_MSIL1C_20210626T001111_N0300_R073_T55JHN_20210626T014332.zip
/g/data/fj7/Copernicus/Sentinel-2/MSI/L1C/2021/2021-06/30S115E-35S120E/S2A_MSIL1C_20210612T020451_N0300_R017_T50HQH_20210612T052637.zip
/g/data/fj7/Copernicus/Sentinel-2/MSI/L1C/2021/2021-06/15S120E-20S125E/S2A_MSIL1C_20210612T020451_N0300_R017_T51KTU_20210612T052637.zip
/g/data/fj7/Copernicus/Sentinel-2/MSI/L1C/2021/2021-06/30S115E-35S120E/S2A_MSIL1C_20210612T020451_N0300_R017_T50JQM_20210612T052637.zip
/g/data/fj7/Copernicus/Sentinel-2/MSI/L1C/2021/2021-06/30S115E-35S120E/S2A_MSIL1C_20210612T020451_N0300_R017_T50JNL_20210612T052637.zip
/g/data/fj7/Copernicus/Sentinel-2/MSI/L1C/2021/2021-06/30S115E-35S120E/S2A_MSIL1C_20210612T020451_N0300_R017_T50HNJ_20210612T052637.zip
/g/data/fj7/Copernicus/Sentinel-2/MSI/L1C/2021/2021-06/30S115E-35S120E/S2A_MSIL1C_20210612T020451_N0300_R017_T50HPJ_20210612T052637.zip
/g/data/fj7/Copernicus/Sentinel-2/MSI/L1C/2021/2021-06/20S155E-25S160E/S2A_MSIL1C_20210629T235251_N0300_R130_T56KQV_20210630T012010.zip
/g/data/fj7/Copernicus/Sentinel-2/MSI/L1C/2021/2021-05/15S145E-20S150E/S2A_MSIL1C_20210520T002101_N0300_R116_T55LGC_20210520T015232.zip
/g/data/fj7/Copernicus/Sentinel-2/MSI/L1C/2021/2021-06/30S115E-35S120E/S2A_MSIL1C_20210612T020451_N0300_R017_T50HMG_20210612T052637.zip
/g/data/fj7/Copernicus/Sentinel-2/MSI/L1C/2021/2021-06/20S155E-25S160E/S2A_MSIL1C_20210609T235251_N0300_R130_T56KQA_20210610T012028.zip
/g/data/fj7/Copernicus/Sentinel-2/MSI/L1C/2021/2021-06/30S115E-35S120E/S2A_MSIL1C_20210612T020451_N0300_R017_T50HMK_20210612T052637.zip
/g/data/fj7/Copernicus/Sentinel-2/MSI/L1C/2021/2021-03/30S140E-35S145E/S2A_MSIL1C_20210304T002711_N0209_R016_T54HWG_20210304T020833.zip
/g/data/fj7/Copernicus/Sentinel-2/MSI/L1C/2021/2021-06/30S115E-35S120E/S2A_MSIL1C_20210612T020451_N0300_R017_T51JTF_20210612T052637.zip
/g/data/fj7/Copernicus/Sentinel-2/MSI/L1C/2021/2021-06/15S120E-20S125E/S2A_MSIL1C_20210612T020451_N0300_R017_T51KWB_20210612T052637.zip
/g/data/fj7/Copernicus/Sentinel-2/MSI/L1C/2021/2021-06/20S155E-25S160E/S2A_MSIL1C_20210619T235251_N0300_R130_T56KQV_20210620T012107.zip
/g/data/fj7/Copernicus/Sentinel-2/MSI/L1C/2021/2021-06/15S120E-20S125E/S2A_MSIL1C_20210612T020451_N0300_R017_T51KVA_20210612T052637.zip
/g/data/fj7/Copernicus/Sentinel-2/MSI/L1C/2021/2021-06/30S115E-35S120E/S2A_MSIL1C_20210612T020451_N0300_R017_T50JNM_20210612T052637.zip
/g/data/fj7/Copernicus/Sentinel-2/MSI/L1C/2021/2021-06/30S115E-35S120E/S2A_MSIL1C_20210612T020451_N0300_R017_T50HNG_20210612T052637.zip
/g/data/fj7/Copernicus/Sentinel-2/MSI/L1C/2021/2021-06/30S115E-35S120E/S2A_MSIL1C_20210612T020451_N0300_R017_T50JPM_20210612T052637.zip
/g/data/fj7/Copernicus/Sentinel-2/MSI/L1C/2021/2021-06/15S120E-20S125E/S2A_MSIL1C_20210612T020451_N0300_R017_T51LUD_20210612T052637.zip
/g/data/fj7/Copernicus/Sentinel-2/MSI/L1C/2021/2021-06/15S120E-20S125E/S2A_MSIL1C_20210612T020451_N0300_R017_T51LVC_20210612T052637.zip
/g/data/fj7/Copernicus/Sentinel-2/MSI/L1C/2021/2021-06/15S120E-20S125E/S2A_MSIL1C_20210612T020451_N0300_R017_T50KRD_20210612T052637.zip
/g/data/fj7/Copernicus/Sentinel-2/MSI/L1C/2021/2021-06/15S120E-20S125E/S2A_MSIL1C_20210612T020451_N0300_R017_T51KUB_20210612T052637.zip
/g/data/fj7/Copernicus/Sentinel-2/MSI/L1C/2021/2021-06/15S120E-20S125E/S2A_MSIL1C_20210612T020451_N0300_R017_T51KVB_20210612T052637.zip
/g/data/fj7/Copernicus/Sentinel-2/MSI/L1C/2021/2021-06/15S120E-20S125E/S2A_MSIL1C_20210612T020451_N0300_R017_T51KUU_20210612T052637.zip
/g/data/fj7/Copernicus/Sentinel-2/MSI/L1C/2021/2021-06/15S120E-20S125E/S2A_MSIL1C_20210612T020451_N0300_R017_T51LWC_20210612T052637.zip
/g/data/fj7/Copernicus/Sentinel-2/MSI/L1C/2021/2021-06/15S120E-20S125E/S2A_MSIL1C_20210612T020451_N0300_R017_T51KVU_20210612T052637.zip
/g/data/fj7/Copernicus/Sentinel-2/MSI/L1C/2021/2021-06/15S120E-20S125E/S2A_MSIL1C_20210612T020451_N0300_R017_T51KWA_20210612T052637.zip
/g/data/fj7/Copernicus/Sentinel-2/MSI/L1C/2021/2021-06/15S120E-20S125E/S2A_MSIL1C_20210612T020451_N0300_R017_T51LUC_20210612T052637.zip
/g/data/fj7/Copernicus/Sentinel-2/MSI/L1C/2021/2021-07/20S155E-25S160E/S2A_MSIL1C_20210719T235251_N0301_R130_T56KQA_20210720T011538.zip
/g/data/fj7/Copernicus/Sentinel-2/MSI/L1C/2021/2021-08/20S155E-25S160E/S2A_MSIL1C_20210828T235251_N0301_R130_T56KQA_20210829T011308.zip
/g/data/fj7/Copernicus/Sentinel-2/MSI/L1C/2021/2021-07/20S155E-25S160E/S2A_MSIL1C_20210729T235251_N0301_R130_T56KQA_20210730T011323.zip
/g/data/fj7/Copernicus/Sentinel-2/MSI/L1C/2022/2022-01/20S155E-25S160E/S2B_MSIL1C_20220120T235239_N0301_R130_T56KQV_20220121T004710.zip
/g/data/fj7/Copernicus/Sentinel-2/MSI/L1C/2021/2021-07/10S140E-15S145E/S2A_MSIL1C_20210708T004711_N0301_R102_T54LXM_20210708T022548.zip
/g/data/fj7/Copernicus/Sentinel-2/MSI/L1C/2021/2021-07/20S155E-25S160E/S2A_MSIL1C_20210709T235251_N0301_R130_T56KQV_20210710T012247.zip
/g/data/fj7/Copernicus/Sentinel-2/MSI/L1C/2022/2022-01/30S135E-35S140E/S2B_MSIL1C_20220129T004659_N0400_R102_T53HQE_20220129T020038.zip
/g/data/fj7/Copernicus/Sentinel-2/MSI/L1C/2021/2021-07/20S155E-25S160E/S2A_MSIL1C_20210729T235251_N0301_R130_T56KQV_20210730T011323.zip
/g/data/fj7/Copernicus/Sentinel-2/MSI/L1C/2021/2021-07/10S140E-15S145E/S2A_MSIL1C_20210728T004711_N0301_R102_T54LXM_20210728T021710.zip
/g/data/fj7/Copernicus/Sentinel-2/MSI/L1C/2021/2021-08/15S130E-20S135E/S2A_MSIL1C_20210819T012721_N0301_R131_T52KHG_20210819T025037.zip
/g/data/fj7/Copernicus/Sentinel-2/MSI/L1C/2021/2021-07/25S130E-30S135E/S2A_MSIL1C_20210710T012721_N0301_R131_T52JFN_20210710T030118.zip
/g/data/fj7/Copernicus/Sentinel-2/MSI/L1C/2021/2021-08/35S140E-40S145E/S2A_MSIL1C_20210808T002101_N0301_R116_T54HYB_20210808T014315.zip
/g/data/fj7/Copernicus/Sentinel-2/MSI/L1C/2021/2021-08/20S155E-25S160E/S2A_MSIL1C_20210828T235251_N0301_R130_T56KQV_20210829T011308.zip
/g/data/fj7/Copernicus/Sentinel-2/MSI/L1C/2022/2022-01/20S155E-25S160E/S2B_MSIL1C_20220110T235239_N0301_R130_T56KQV_20220111T005037.zip
/g/data/fj7/Copernicus/Sentinel-2/MSI/L1C/2021/2021-07/20S155E-25S160E/S2A_MSIL1C_20210709T235251_N0301_R130_T56KQA_20210710T012247.zip
/g/data/fj7/Copernicus/Sentinel-2/MSI/L1C/2021/2021-06/35S140E-40S145E/S2A_MSIL1C_20210609T002101_N0300_R116_T54HYB_20210609T014735.zip
/g/data/fj7/Copernicus/Sentinel-2/MSI/L1C/2021/2021-01/30S145E-35S150E/S2B_MSIL1C_20210109T000239_N0209_R030_T55HGC_20210109T011330.zip
/g/data/fj7/Copernicus/Sentinel-2/MSI/L1C/2021/2021-02/20S155E-25S160E/S2B_MSIL1C_20210214T235249_N0209_R130_T56KQV_20210215T010514.zip
/g/data/fj7/Copernicus/Sentinel-2/MSI/L1C/2021/2021-08/20S155E-25S160E/S2A_MSIL1C_20210818T235251_N0301_R130_T56KQV_20210819T011142.zip
/g/data/fj7/Copernicus/Sentinel-2/MSI/L1C/2022/2022-01/10S130E-15S135E/S2B_MSIL1C_20220114T013709_N0301_R031_T52LFK_20220114T030836.zip
/g/data/fj7/Copernicus/Sentinel-2/MSI/L1C/2022/2022-01/20S155E-25S160E/S2B_MSIL1C_20220130T235239_N0400_R130_T56KQV_20220131T004916.zip
/g/data/fj7/Copernicus/Sentinel-2/MSI/L1C/2021/2021-07/20S130E-25S135E/S2A_MSIL1C_20210704T010731_N0301_R045_T53KMP_20210704T024220.zip
/g/data/fj7/Copernicus/Sentinel-2/MSI/L1C/2021/2021-01/30S110E-35S115E/S2B_MSIL1C_20210124T023249_N0209_R103_T50JLL_20210124T035242.zip
/g/data/fj7/Copernicus/Sentinel-2/MSI/L1C/2021/2021-02/20S155E-25S160E/S2B_MSIL1C_20210224T235249_N0209_R130_T56KQV_20210225T010848.zip
/g/data/fj7/Copernicus/Sentinel-2/MSI/L1C/2022/2022-01/20S130E-25S135E/S2B_MSIL1C_20220118T011719_N0301_R088_T53KLQ_20220118T021747.zip
/g/data/fj7/Copernicus/Sentinel-2/MSI/L1C/2021/2021-06/15S120E-20S125E/S2A_MSIL1C_20210612T020451_N0300_R017_T51KUA_20210612T052637.zip
/g/data/fj7/Copernicus/Sentinel-2/MSI/L1C/2022/2022-01/20S155E-25S160E/S2B_MSIL1C_20220120T235239_N0301_R130_T56KQA_20220121T004710.zip
/g/data/fj7/Copernicus/Sentinel-2/MSI/L1C/2021/2021-02/20S155E-25S160E/S2B_MSIL1C_20210224T235249_N0209_R130_T56KQA_20210225T010848.zip
/g/data/fj7/Copernicus/Sentinel-2/MSI/L1C/2022/2022-01/20S155E-25S160E/S2B_MSIL1C_20220110T235239_N0301_R130_T56KQA_20220111T005037.zip
/g/data/fj7/Copernicus/Sentinel-2/MSI/L1C/2021/2021-07/15S145E-20S150E/S2A_MSIL1C_20210709T002101_N0301_R116_T55LGC_20210709T015004.zip
/g/data/fj7/Copernicus/Sentinel-2/MSI/L1C/2021/2021-03/30S145E-35S150E/S2A_MSIL1C_20210315T000241_N0209_R030_T55HGC_20210315T013503.zip
/g/data/fj7/Copernicus/Sentinel-2/MSI/L1C/2022/2022-01/15S130E-20S135E/S2B_MSIL1C_20220131T012709_N0400_R131_T53KLA_20220131T025004.zip
/g/data/fj7/Copernicus/Sentinel-2/MSI/L1C/2021/2021-02/20S155E-25S160E/S2B_MSIL1C_20210214T235249_N0209_R130_T56KQA_20210215T010514.zip
/g/data/fj7/Copernicus/Sentinel-2/MSI/L1C/2022/2022-01/10S130E-15S135E/S2B_MSIL1C_20220114T013709_N0301_R031_T52LFK_20220114T030136.zip
/g/data/fj7/Copernicus/Sentinel-2/MSI/L1C/2021/2021-07/10S130E-15S135E/S2A_MSIL1C_20210713T013721_N0301_R031_T52LFK_20210713T031533.zip
/g/data/fj7/Copernicus/Sentinel-2/MSI/L1C/2022/2022-01/30S135E-35S140E/S2B_MSIL1C_20220129T004659_N0400_R102_T53HQE_20220129T021051.zip
/g/data/fj7/Copernicus/Sentinel-2/MSI/L1C/2021/2021-07/10S140E-15S145E/S2A_MSIL1C_20210718T004711_N0301_R102_T54LXM_20210718T021709.zip
/g/data/fj7/Copernicus/Sentinel-2/MSI/L1C/2021/2021-02/20S155E-25S160E/S2B_MSIL1C_20210204T235249_N0209_R130_T56KQV_20210205T011629.zip
/g/data/fj7/Copernicus/Sentinel-2/MSI/L1C/2021/2021-06/15S120E-20S125E/S2A_MSIL1C_20210612T020451_N0300_R017_T51KVV_20210612T052637.zip
/g/data/fj7/Copernicus/Sentinel-2/MSI/L1C/2021/2021-07/20S125E-25S130E/S2A_MSIL1C_20210720T012721_N0301_R131_T52JET_20210720T025307.zip
/g/data/fj7/Copernicus/Sentinel-2/MSI/L1C/2022/2022-01/15S135E-20S140E/S2B_MSIL1C_20220125T010719_N0301_R045_T53KQA_20220125T020725.zip
/g/data/fj7/Copernicus/Sentinel-2/MSI/L1C/2021/2021-08/30S145E-35S150E/S2A_MSIL1C_20210815T001111_N0301_R073_T55HFD_20210815T013504.zip
/g/data/fj7/Copernicus/Sentinel-2/MSI/L1C/2022/2022-01/20S155E-25S160E/S2B_MSIL1C_20220130T235239_N0400_R130_T56KQA_20220131T004916.zip
/g/data/fj7/Copernicus/Sentinel-2/MSI/L1C/2022/2022-01/35S140E-40S145E/S2B_MSIL1C_20220120T002049_N0301_R116_T54HYB_20220120T032213.zip
/g/data/fj7/Copernicus/Sentinel-2/MSI/L1C/2021/2021-08/20S155E-25S160E/S2A_MSIL1C_20210818T235251_N0301_R130_T56KQA_20210819T011142.zip
/g/data/fj7/Copernicus/Sentinel-2/MSI/L1C/2021/2021-02/20S155E-25S160E/S2B_MSIL1C_20210204T235249_N0209_R130_T56KQA_20210205T011629.zip
/g/data/fj7/Copernicus/Sentinel-2/MSI/L1C/2021/2021-02/35S145E-40S150E/S2B_MSIL1C_20210228T000239_N0209_R030_T55HGU_20210228T011739.zip
/g/data/fj7/Copernicus/Sentinel-2/MSI/L1C/2021/2021-01/20S155E-25S160E/S2B_MSIL1C_20210115T235249_N0209_R130_T56KQA_20210116T010541.zip
/g/data/fj7/Copernicus/Sentinel-2/MSI/L1C/2021/2021-01/20S155E-25S160E/S2B_MSIL1C_20210105T235249_N0209_R130_T56KQA_20210106T010455.zip
/g/data/fj7/Copernicus/Sentinel-2/MSI/L1C/2021/2021-01/20S155E-25S160E/S2B_MSIL1C_20210125T235249_N0209_R130_T56KQA_20210126T010439.zip
/g/data/fj7/Copernicus/Sentinel-2/MSI/L1C/2021/2021-01/20S155E-25S160E/S2B_MSIL1C_20210125T235249_N0209_R130_T56KQV_20210126T010439.zip
/g/data/fj7/Copernicus/Sentinel-2/MSI/L1C/2021/2021-01/20S155E-25S160E/S2B_MSIL1C_20210115T235249_N0209_R130_T56KQV_20210116T010541.zip
/g/data/fj7/Copernicus/Sentinel-2/MSI/L1C/2021/2021-07/20S155E-25S160E/S2A_MSIL1C_20210719T235251_N0301_R130_T56KQV_20210720T011538.zip
/g/data/fj7/Copernicus/Sentinel-2/MSI/L1C/2021/2021-06/20S120E-25S125E/S2A_MSIL1C_20210612T020451_N0300_R017_T51KTP_20210612T052637.zip
/g/data/fj7/Copernicus/Sentinel-2/MSI/L1C/2021/2021-06/20S120E-25S125E/S2A_MSIL1C_20210612T020451_N0300_R017_T51KUP_20210612T052637.zip
/g/data/fj7/Copernicus/Sentinel-2/MSI/L1C/2021/2021-06/20S120E-25S125E/S2A_MSIL1C_20210612T020451_N0300_R017_T51KUT_20210612T052637.zip
/g/data/fj7/Copernicus/Sentinel-2/MSI/L1C/2021/2021-01/20S155E-25S160E/S2A_MSIL1C_20210120T235251_N0209_R130_T56KQA_20210121T012447.zip
/g/data/fj7/Copernicus/Sentinel-2/MSI/L1C/2021/2021-06/20S115E-25S120E/S2A_MSIL1C_20210612T020451_N0300_R017_T50KQV_20210612T052637.zip
/g/data/fj7/Copernicus/Sentinel-2/MSI/L1C/2021/2021-06/20S115E-25S120E/S2A_MSIL1C_20210612T020451_N0300_R017_T50JQT_20210612T052637.zip
/g/data/fj7/Copernicus/Sentinel-2/MSI/L1C/2021/2021-06/20S130E-25S135E/S2A_MSIL1C_20210604T010731_N0300_R045_T53KMP_20210604T023213.zip
/g/data/fj7/Copernicus/Sentinel-2/MSI/L1C/2021/2021-02/35S145E-40S150E/S2A_MSIL1C_20210216T001111_N0209_R073_T55HDS_20210216T014911.zip
/g/data/fj7/Copernicus/Sentinel-2/MSI/L1C/2021/2021-06/20S120E-25S125E/S2A_MSIL1C_20210612T020451_N0300_R017_T50KRC_20210612T052637.zip
/g/data/fj7/Copernicus/Sentinel-2/MSI/L1C/2022/2022-01/20S155E-25S160E/S2A_MSIL1C_20220105T235251_N0301_R130_T56KQA_20220106T011429.zip
/g/data/fj7/Copernicus/Sentinel-2/MSI/L1C/2021/2021-06/20S120E-25S125E/S2A_MSIL1C_20210612T020451_N0300_R017_T51KUS_20210612T052637.zip
/g/data/fj7/Copernicus/Sentinel-2/MSI/L1C/2021/2021-06/20S120E-25S125E/S2A_MSIL1C_20210612T020451_N0300_R017_T51KTR_20210612T052637.zip
/g/data/fj7/Copernicus/Sentinel-2/MSI/L1C/2021/2021-06/20S120E-25S125E/S2A_MSIL1C_20210612T020451_N0300_R017_T51JTN_20210612T052637.zip
/g/data/fj7/Copernicus/Sentinel-2/MSI/L1C/2021/2021-02/20S155E-25S160E/S2A_MSIL1C_20210219T235241_N0209_R130_T56KQV_20210220T012347.zip
/g/data/fj7/Copernicus/Sentinel-2/MSI/L1C/2021/2021-06/20S120E-25S125E/S2A_MSIL1C_20210612T020451_N0300_R017_T51JUN_20210612T052637.zip
/g/data/fj7/Copernicus/Sentinel-2/MSI/L1C/2021/2021-06/20S120E-25S125E/S2A_MSIL1C_20210612T020451_N0300_R017_T50KRB_20210612T052637.zip
/g/data/fj7/Copernicus/Sentinel-2/MSI/L1C/2021/2021-06/20S120E-25S125E/S2A_MSIL1C_20210612T020451_N0300_R017_T51KTT_20210612T052637.zip
/g/data/fj7/Copernicus/Sentinel-2/MSI/L1C/2021/2021-02/20S155E-25S160E/S2A_MSIL1C_20210219T235241_N0209_R130_T56KQA_20210220T012347.zip
/g/data/fj7/Copernicus/Sentinel-2/MSI/L1C/2021/2021-06/20S115E-25S120E/S2A_MSIL1C_20210612T020451_N0300_R017_T50KPU_20210612T052637.zip
/g/data/fj7/Copernicus/Sentinel-2/MSI/L1C/2021/2021-06/20S120E-25S125E/S2A_MSIL1C_20210612T020451_N0300_R017_T50JRT_20210612T052637.zip
/g/data/fj7/Copernicus/Sentinel-2/MSI/L1C/2022/2022-01/20S155E-25S160E/S2A_MSIL1C_20220115T235251_N0301_R130_T56KQV_20220116T011114.zip
/g/data/fj7/Copernicus/Sentinel-2/MSI/L1C/2021/2021-02/20S155E-25S160E/S2A_MSIL1C_20210209T235241_N0209_R130_T56KQA_20210210T012332.zip
/g/data/fj7/Copernicus/Sentinel-2/MSI/L1C/2021/2021-02/20S155E-25S160E/S2A_MSIL1C_20210209T235241_N0209_R130_T56KQV_20210210T012332.zip
/g/data/fj7/Copernicus/Sentinel-2/MSI/L1C/2021/2021-06/20S115E-25S120E/S2A_MSIL1C_20210612T020451_N0300_R017_T50KQB_20210612T052637.zip
/g/data/fj7/Copernicus/Sentinel-2/MSI/L1C/2022/2022-01/25S130E-30S135E/S2A_MSIL1C_20220123T011731_N0301_R088_T52JFN_20220123T034143.zip
/g/data/fj7/Copernicus/Sentinel-2/MSI/L1C/2021/2021-06/20S120E-25S125E/S2A_MSIL1C_20210612T020451_N0300_R017_T51KUR_20210612T052637.zip
/g/data/fj7/Copernicus/Sentinel-2/MSI/L1C/2021/2021-02/30S140E-35S145E/S2A_MSIL1C_20210202T002711_N0209_R016_T54HWG_20210202T021059.zip
/g/data/fj7/Copernicus/Sentinel-2/MSI/L1C/2021/2021-01/20S155E-25S160E/S2A_MSIL1C_20210130T235251_N0209_R130_T56KQV_20210131T012454.zip
/g/data/fj7/Copernicus/Sentinel-2/MSI/L1C/2021/2021-04/20S155E-25S160E/S2A_MSIL1C_20210430T235241_N0300_R130_T56KQA_20210501T012306.zip
/g/data/fj7/Copernicus/Sentinel-2/MSI/L1C/2021/2021-06/20S115E-25S120E/S2A_MSIL1C_20210612T020451_N0300_R017_T50KPV_20210612T052637.zip
/g/data/fj7/Copernicus/Sentinel-2/MSI/L1C/2021/2021-01/35S145E-40S150E/S2A_MSIL1C_20210104T000241_N0209_R030_T55HGU_20210104T013515.zip
/g/data/fj7/Copernicus/Sentinel-2/MSI/L1C/2021/2021-06/20S120E-25S125E/S2A_MSIL1C_20210612T020451_N0300_R017_T50KRV_20210612T052637.zip
/g/data/fj7/Copernicus/Sentinel-2/MSI/L1C/2021/2021-06/20S120E-25S125E/S2A_MSIL1C_20210612T020451_N0300_R017_T51KUQ_20210612T052637.zip
/g/data/fj7/Copernicus/Sentinel-2/MSI/L1C/2021/2021-01/20S155E-25S160E/S2A_MSIL1C_20210120T235251_N0209_R130_T56KQV_20210121T012447.zip
/g/data/fj7/Copernicus/Sentinel-2/MSI/L1C/2022/2022-01/25S125E-30S130E/S2A_MSIL1C_20220129T013711_N0400_R031_T51JZM_20220129T034628.zip
/g/data/fj7/Copernicus/Sentinel-2/MSI/L1C/2022/2022-01/20S155E-25S160E/S2A_MSIL1C_20220125T235251_N0400_R130_T56KQA_20220126T011557.zip
/g/data/fj7/Copernicus/Sentinel-2/MSI/L1C/2021/2021-06/20S115E-25S120E/S2A_MSIL1C_20210612T020451_N0300_R017_T50JPT_20210612T052637.zip
/g/data/fj7/Copernicus/Sentinel-2/MSI/L1C/2021/2021-01/20S155E-25S160E/S2A_MSIL1C_20210110T235251_N0209_R130_T56KQA_20210111T012452.zip
/g/data/fj7/Copernicus/Sentinel-2/MSI/L1C/2021/2021-06/20S115E-25S120E/S2A_MSIL1C_20210612T020451_N0300_R017_T50KQA_20210612T052637.zip
/g/data/fj7/Copernicus/Sentinel-2/MSI/L1C/2022/2022-01/20S155E-25S160E/S2A_MSIL1C_20220115T235251_N0301_R130_T56KQA_20220116T011114.zip
/g/data/fj7/Copernicus/Sentinel-2/MSI/L1C/2022/2022-01/20S155E-25S160E/S2A_MSIL1C_20220125T235251_N0400_R130_T56KQV_20220126T011557.zip
/g/data/fj7/Copernicus/Sentinel-2/MSI/L1C/2021/2021-01/20S155E-25S160E/S2A_MSIL1C_20210130T235251_N0209_R130_T56KQA_20210131T012454.zip
/g/data/fj7/Copernicus/Sentinel-2/MSI/L1C/2021/2021-06/20S115E-25S120E/S2A_MSIL1C_20210612T020451_N0300_R017_T50KQU_20210612T052637.zip
/g/data/fj7/Copernicus/Sentinel-2/MSI/L1C/2021/2021-06/20S120E-25S125E/S2A_MSIL1C_20210612T020451_N0300_R017_T51KVS_20210612T052637.zip
/g/data/fj7/Copernicus/Sentinel-2/MSI/L1C/2021/2021-01/20S155E-25S160E/S2A_MSIL1C_20210110T235251_N0209_R130_T56KQV_20210111T012452.zip
/g/data/fj7/Copernicus/Sentinel-2/MSI/L1C/2021/2021-02/20S135E-25S140E/S2A_MSIL1C_20210211T005711_N0209_R002_T54KTV_20210213T225041.zip
/g/data/fj7/Copernicus/Sentinel-2/MSI/L1C/2022/2022-01/25S145E-30S150E/S2A_MSIL1C_20220102T001111_N0301_R073_T55JGH_20220102T013405.zip
/g/data/fj7/Copernicus/Sentinel-2/MSI/L1C/2021/2021-03/20S135E-25S140E/S2A_MSIL1C_20210303T005711_N0209_R002_T54KTV_20210303T024137.zip
/g/data/fj7/Copernicus/Sentinel-2/MSI/L1C/2021/2021-06/20S120E-25S125E/S2A_MSIL1C_20210612T020451_N0300_R017_T51KTS_20210612T052637.zip
/g/data/fj7/Copernicus/Sentinel-2/MSI/L1C/2021/2021-06/20S115E-25S120E/S2A_MSIL1C_20210612T020451_N0300_R017_T50KQC_20210612T052637.zip
/g/data/fj7/Copernicus/Sentinel-2/MSI/L1C/2021/2021-01/40S145E-45S150E/S2A_MSIL1C_20210104T000241_N0209_R030_T55GDN_20210104T013515.zip
/g/data/fj7/Copernicus/Sentinel-2/MSI/L1C/2022/2022-01/20S155E-25S160E/S2A_MSIL1C_20220105T235251_N0301_R130_T56KQV_20220106T011429.zip
/g/data/fj7/Copernicus/Sentinel-2/MSI/L1C/2021/2021-02/30S120E-35S125E/S2A_MSIL1C_20210226T014701_N0209_R074_T51JVF_20210226T033746.zip
/g/data/fj7/Copernicus/Sentinel-2/MSI/L1C/2021/2021-06/20S120E-25S125E/S2A_MSIL1C_20210612T020451_N0300_R017_T50KRA_20210612T052637.zip
/g/data/fj7/Copernicus/Sentinel-2/MSI/L1C/2022/2022-01/25S125E-30S130E/S2A_MSIL1C_20220119T013711_N0301_R031_T51JZM_20220119T030013.zip
/g/data/fj7/Copernicus/Sentinel-2/MSI/L1C/2021/2021-01/20S135E-25S140E/S2A_MSIL1C_20210112T005711_N0209_R002_T54KTV_20210112T022616.zip
/g/data/fj7/Copernicus/Sentinel-2/MSI/L1C/2021/2021-06/20S120E-25S125E/S2A_MSIL1C_20210612T020451_N0300_R017_T50KRU_20210612T052637.zip
/g/data/fj7/Copernicus/Sentinel-2/MSI/L1C/2021/2021-06/20S120E-25S125E/S2A_MSIL1C_20210612T020451_N0300_R017_T51KVR_20210612T052637.zip
/g/data/fj7/Copernicus/Sentinel-2/MSI/L1C/2021/2021-06/20S120E-25S125E/S2A_MSIL1C_20210612T020451_N0300_R017_T51KTQ_20210612T052637.zip
/g/data/fj7/Copernicus/Sentinel-2/MSI/L1C/2021/2021-06/20S120E-25S125E/S2A_MSIL1C_20210612T020451_N0300_R017_T51KVT_20210612T052637.zip
/g/data/fj7/Copernicus/Sentinel-2/MSI/L1C/2021/2021-04/20S155E-25S160E/S2A_MSIL1C_20210430T235241_N0300_R130_T56KQV_20210501T012306.zip
/g/data/fj7/Copernicus/Sentinel-2/MSI/L1C/2021/2021-04/20S155E-25S160E/S2A_MSIL1C_20210420T235241_N0300_R130_T56KQA_20210421T012614.zip
/g/data/fj7/Copernicus/Sentinel-2/MSI/L1C/2021/2021-04/20S155E-25S160E/S2A_MSIL1C_20210410T235241_N0300_R130_T56KQA_20210411T012508.zip
/g/data/fj7/Copernicus/Sentinel-2/MSI/L1C/2021/2021-04/20S155E-25S160E/S2A_MSIL1C_20210410T235241_N0300_R130_T56KQV_20210411T012508.zip
/g/data/fj7/Copernicus/Sentinel-2/MSI/L1C/2021/2021-06/25S115E-30S120E/S2A_MSIL1C_20210618T023251_N0300_R103_T50JLQ_20210618T045700.zip
/g/data/fj7/Copernicus/Sentinel-2/MSI/L1C/2021/2021-04/20S155E-25S160E/S2A_MSIL1C_20210420T235241_N0300_R130_T56KQV_20210421T012614.zip
/g/data/fj7/Copernicus/Sentinel-2/MSI/L1C/2021/2021-06/25S115E-30S120E/S2A_MSIL1C_20210612T020451_N0300_R017_T50JNQ_20210612T052637.zip
